"occ_id","spp_id","decimalLatitude","decimalLongitude","country","identifiedBy"
"occ_001","sp_1",8.502051,-83.596929,"Costa Rica","Leo Arias"
"occ_002","sp_1",8.619753,-83.604773,"Costa Rica","stevethesnakeguy"
"occ_003","sp_1",8.600765,-83.784237,"Costa Rica","stevethesnakeguy"
"occ_004","sp_1",8.543333,-83.573675,"Costa Rica","Julius Simonelli"
"occ_005","sp_1",8.518909,-83.430794,"Costa Rica","Charmaine Leung"
"occ_006","sp_1",8.514542,-83.400603,"Costa Rica","mschneider"
"occ_007","sp_1",9.575505,-83.826215,"Costa Rica","Richard Joyce"
"occ_008","sp_1",9.405102,-83.931211,"Costa Rica","Richard Joyce"
"occ_009","sp_1",8.501135,-83.561871,"Costa Rica","C Hewitt"
"occ_010","sp_1",8.419946,-83.400989,"Costa Rica","Lara Brenner"
"occ_011","sp_1",8.520999,-83.560394,"Costa Rica","Michele Chiacchio"
"occ_012","sp_1",16.208244,-90.843731,"Mexico","Silvano LG"
"occ_013","sp_1",9.381004,-78.892484,"Panama","camerondeckert"
"occ_014","sp_1",17.512746,-89.142055,"Belize","Jan Meerman"
"occ_015","sp_1",8.546051,-83.444791,"Costa Rica","Samantha Hughes"
"occ_016","sp_1",8.426816,-83.478628,"Costa Rica","Pauline Catling"
"occ_017","sp_1",8.548335,-83.532045,"Costa Rica","Pauline Catling"
"occ_018","sp_1",8.443365,-83.538511,"Costa Rica","otomops"
"occ_019","sp_1",8.599398,-83.393757,"Costa Rica","Osa Conservation"
"occ_020","sp_1",8.647724,-83.767572,"Costa Rica","mynahthreatt"
"occ_021","sp_1",8.578646,-83.481015,"Costa Rica","Irene Domhoff"
"occ_022","sp_1",10.010455,-83.84293,"Costa Rica","Michal Sloviak"
"occ_023","sp_1",10.19846,-84.522357,"Costa Rica","C Hewitt"
"occ_024","sp_1",18.044678,-89.268196,"Mexico","Gabriela Méndez Saint Martin"
"occ_025","sp_1",18.236418,-89.303617,"Mexico","Gabriela Méndez Saint Martin"
"occ_026","sp_1",18.026609,-89.305865,"Mexico","Gabriela Méndez Saint Martin"
"occ_027","sp_1",17.735791,-89.099153,"Belize","Jan Meerman"
"occ_028","sp_1",10.043689,-84.069122,"Costa Rica","Roberto Vargas"
"occ_029","sp_1",10.771718,-85.043237,"Costa Rica","donald_varela"
"occ_030","sp_1",14.311068,-85.673801,"Honduras","Carlos Armando Godoy Fonseca"
"occ_031","sp_1",16.440467,-90.922209,"Mexico","Silvano LG"
"occ_032","sp_1",16.769378,-90.818201,"Mexico","Silvano LG"
"occ_033","sp_1",8.469566,-83.356725,"Costa Rica","sergiovillegas"
"occ_034","sp_1",10.74903,-83.486089,"Costa Rica","Víctor Barrantes"
"occ_035","sp_1",10.042772,-83.950117,"Costa Rica","David Molina Jiménez"
"occ_036","sp_1",8.726715,-83.756899,"Costa Rica","Fiorella Vásquez"
"occ_037","sp_1",9.746353,-83.935375,"Costa Rica","Eduardo Chacón-Madrigal"
"occ_038","sp_1",8.430375,-83.545618,"Costa Rica","Heiner Ziegler"
"occ_039","sp_1",8.759208,-83.792149,"Costa Rica","oliver-autrey"
"occ_040","sp_1",8.558372,-83.413832,"Costa Rica","Susan Endean"
"occ_041","sp_1",15.725134,-92.952013,"Mexico","Jane Widness"
"occ_042","sp_1",9.790106,-83.815422,"Costa Rica","Alex Lamoreaux"
"occ_043","sp_1",15.697355,-92.847912,"Mexico","jpgalvan"
"occ_044","sp_1",8.451053,-83.471087,"Costa Rica","napoleon1799"
"occ_045","sp_1",8.459173,-83.22838,"Costa Rica","Jo De Pauw"
"occ_046","sp_1",8.471034,-83.227778,"Costa Rica","apistopanchax"
"occ_047","sp_1",8.251165,-83.28712,"Costa Rica","nickfunnell"
"occ_048","sp_1",8.763392,-83.620645,"Costa Rica","jungleanor"
"occ_049","sp_1",8.480183,-83.589821,"Costa Rica",NA
"occ_050","sp_1",8.442954,-83.539243,"Costa Rica","nolwenn33850"
"occ_051","sp_1",10.186492,-83.962683,"Costa Rica","Jane Widness"
"occ_052","sp_1",10.157942,-83.932408,"Costa Rica","ahna_knudsen"
"occ_053","sp_1",8.531661,-83.508783,"Costa Rica","ldgc"
"occ_054","sp_1",8.63179,-83.645227,"Costa Rica",NA
"occ_055","sp_1",10.186724,-83.806291,"Costa Rica","Lena Struwe"
"occ_056","sp_1",10.015921,-83.81812,"Costa Rica","Lena Struwe"
"occ_057","sp_1",17.659662,-89.007442,"Belize","Jan Meerman"
"occ_058","sp_1",8.500014,-83.567529,"Costa Rica","Patricia Mancilla Iglesias"
"occ_059","sp_1",8.536898,-83.42341,"Costa Rica","ramirofsuarez"
"occ_060","sp_1",8.557822,-83.29012,"Costa Rica","Jo De Pauw"
"occ_061","sp_1",8.577655,-83.242493,"Costa Rica","Jo De Pauw"
"occ_062","sp_1",8.710647,-83.72575,"Costa Rica","leo_lasrado"
"occ_063","sp_1",8.430336,-83.500142,"Costa Rica","kmherpkid"
"occ_064","sp_1",8.54776,-83.450013,"Costa Rica","kmherpkid"
"occ_065","sp_1",8.563898,-83.543518,"Costa Rica","Walter A. Sánchez"
"occ_066","sp_1",8.439083,-83.66498,"Costa Rica","Guenther Eichhorn"
"occ_067","sp_1",18.96446,-88.337178,"Mexico","Roberto González"
"occ_068","sp_1",18.917965,-88.246249,"Mexico","Jaime Marcelo Aranda Sánchez"
"occ_069","sp_1",18.91379,-88.308918,"Mexico","Arturo Hernandez"
"occ_070","sp_1",16.888034,-91.476421,"Mexico","Leon Hernandez"
"occ_071","sp_1",8.626511,-83.775657,"Costa Rica","gringocurt"
"occ_072","sp_1",10.326635,-84.349977,"Costa Rica","nlasala"
"occ_073","sp_1",10.133666,-84.067128,"Costa Rica","kelly_hopkinson"
"occ_074","sp_1",10.123654,-84.12455,"Costa Rica","ramos_r"
"occ_075","sp_1",17.681662,-89.167837,"Belize","Jan Meerman"
"occ_076","sp_1",18.743553,-88.229384,"Mexico","Luis Mora"
"occ_077","sp_1",8.4887,-83.598498,"Costa Rica","kjastver"
"occ_078","sp_1",10.957148,-85.412032,"Costa Rica","Michelle Monge-Velazquez"
"occ_079","sp_1",17.578445,-90.127426,"Guatemala","Carlos Duarte"
"occ_080","sp_1",17.420859,-92.077083,"Mexico","Michele Chiacchio"
"occ_081","sp_1",18.017012,-88.848979,"Mexico","Luis Mora"
"occ_082","sp_1",8.528737,-83.532748,"Costa Rica","gwc083"
"occ_083","sp_1",18.506254,-89.785394,"Mexico","Gabriela Méndez Saint Martin"
"occ_084","sp_1",10.094961,-83.991016,"Costa Rica","Marilyn Castillo Muñoz"
"occ_085","sp_1",8.50896,-83.375499,"Costa Rica","dave1996"
"occ_086","sp_1",9.036683,-79.83114,"Panama","Hubert Szczygieł"
"occ_087","sp_1",16.004305,-93.594689,"Mexico","Hervin Barrios"
"occ_088","sp_1",16.340624,-93.813829,"Mexico","Raul Ezequiel González Trujillo"
"occ_089","sp_1",10.692793,-85.168595,"Costa Rica","jmass"
"occ_090","sp_1",10.694051,-85.056411,"Costa Rica","donald_varela"
"occ_091","sp_1",8.454281,-83.440163,"Costa Rica","Prash"
"occ_092","sp_1",10.71309,-85.05389,"Costa Rica","donald_varela"
"occ_093","sp_1",8.559088,-83.58917,"Costa Rica","Jane Widness"
"occ_094","sp_1",17.31307,-89.754545,"Guatemala","jorgedangel"
"occ_095","sp_1",10.940804,-85.352225,"Costa Rica","Francis Joyce"
"occ_096","sp_1",10.813845,-85.738726,"Costa Rica","crawlingworld"
"occ_097","sp_1",10.97564,-85.294209,"Costa Rica","Francis Joyce"
"occ_098","sp_1",8.58019,-83.547502,"Costa Rica","daver"
"occ_099","sp_1",8.57361,-83.465653,"Costa Rica","rockybajada"
"occ_100","sp_1",8.442941,-83.413396,"Costa Rica","Steve Mech"
"occ_101","sp_1",10.272938,-83.909037,"Costa Rica","Bobby McCabe"
"occ_102","sp_1",16.006921,-93.555817,"Mexico","Diego Manzano Méndez"
"occ_103","sp_1",16.706919,-88.556751,"Belize","Martin Mandák"
"occ_104","sp_1",10.981002,-85.759022,"Costa Rica","Jan Axel Cubilla Rodríguez"
"occ_105","sp_1",8.437053,-83.476549,"Costa Rica","npdowling"
"occ_106","sp_1",8.529148,-83.421766,"Costa Rica","Tom Lawrence"
"occ_107","sp_1",8.481853,-83.545622,"Costa Rica","Jane Widness"
"occ_108","sp_1",8.423566,-83.504877,"Costa Rica","Conner Ties"
"occ_109","sp_1",8.488087,-83.68293,"Costa Rica","Jane Widness"
"occ_110","sp_1",16.229185,-90.815687,"Mexico","Francisco Emilio Roldán Velasco"
"occ_111","sp_1",17.267843,-94.19372,"Mexico","roldanvlindo"
"occ_112","sp_1",17.359446,-94.15145,"Mexico","roldanvlindo"
"occ_113","sp_1",17.329294,-94.038212,"Mexico","roldanvlindo"
"occ_114","sp_1",8.530949,-83.435193,"Costa Rica","Jane Widness"
"occ_115","sp_1",8.432203,-83.526157,"Costa Rica","Alan Muchlinski"
"occ_116","sp_1",8.733093,-83.612603,"Costa Rica","eliotthuguet"
"occ_117","sp_1",8.518769,-83.713455,"Costa Rica","Erika"
"occ_118","sp_1",10.67732,-84.147624,"Costa Rica","Larry Chen"
"occ_119","sp_1",10.648626,-85.175534,"Costa Rica","Cristina Posadas"
"occ_120","sp_1",10.699545,-85.248348,"Costa Rica","Julián Jiménez"
"occ_121","sp_1",19.76485,-87.701231,"Mexico","Ismael Arellano Ciau"
"occ_122","sp_1",10.833085,-85.705966,"Costa Rica","Richard Joyce"
"occ_123","sp_1",10.944128,-85.642006,"Costa Rica","Francis Joyce"
"occ_124","sp_1",18.105678,-94.462655,"Mexico","roldanvlindo"
"occ_125","sp_1",17.214021,-94.399461,"Mexico","roldanvlindo"
"occ_126","sp_1",17.224643,-94.231707,"Mexico","roldanvlindo"
"occ_127","sp_1",8.560644,-83.413408,"Costa Rica","James Kindt"
"occ_128","sp_1",17.93369,-89.182931,"Belize","Graham Montgomery"
"occ_129","sp_1",16.794364,-90.834493,"Mexico","Francisco Emilio Roldán Velasco"
"occ_130","sp_1",8.431411,-83.438183,"Costa Rica","Chloe and Trevor"
"occ_131","sp_1",18.757237,-89.184321,"Mexico","Isaí Juárez"
"occ_132","sp_1",18.527247,-88.926252,"Mexico",NA
"occ_133","sp_1",19.007222,-88.394594,"Mexico",NA
"occ_134","sp_1",17.316216,-95.705264,"Mexico","Jos Roger"
"occ_135","sp_1",8.56943,-83.572377,"Costa Rica","johnmeikle"
"occ_136","sp_1",8.544528,-83.584824,"Costa Rica","johnmeikle"
"occ_137","sp_1",8.121389,-77.244167,"Colombia","Palacios-Mosquera Leison"
"occ_138","sp_1",14.832903,-84.468697,"Honduras",NA
"occ_139","sp_1",10.018614,-83.985031,"Costa Rica","Jane Widness"
"occ_140","sp_1",8.594287,-81.039043,"Panama","Guillermo J. Fadul R."
"occ_141","sp_1",10.756588,-85.189155,"Costa Rica","Tapir Valley Nature Reserve"
"occ_142","sp_1",10.622515,-85.122659,"Costa Rica","Tapir Valley Nature Reserve"
"occ_143","sp_1",15.893144,-92.992145,"Mexico","Raul Ezequiel González Trujillo"
"occ_144","sp_1",16.095556,-93.628362,"Mexico","Hervin Barrios"
"occ_145","sp_1",16.109898,-90.909293,"Mexico","Ignacio March Mifsut"
"occ_146","sp_1",18.714114,-89.386524,"Mexico","nuevobecal"
"occ_147","sp_1",10.105679,-84.07632,"Costa Rica","Laura Zúñiga"
"occ_148","sp_1",15.892885,-92.92443,"Mexico","Raul Ezequiel González Trujillo"
"occ_149","sp_1",10.876294,-85.722541,"Costa Rica","Richard Joyce"
"occ_150","sp_1",16.671458,-90.837224,"Mexico","Angelica Zam"
"occ_151","sp_1",8.406894,-83.433291,"Costa Rica","Charlène Selva"
"occ_152","sp_1",16.845839,-88.984489,"Belize",NA
"occ_153","sp_1",8.736456,-83.706408,"Costa Rica","Jane Widness"
"occ_154","sp_1",17.20526,-95.83028,"Mexico","Jhovani Sánchez"
"occ_155","sp_1",17.27451,-95.98544,"Mexico","Catalina Vázquez"
"occ_156","sp_1",17.21155,-95.85102,"Mexico","Jhovani Sánchez"
"occ_157","sp_1",17.25385,-95.9537,"Mexico","Omar Hernández"
"occ_158","sp_1",17.27929,-96.06856,"Mexico","Omar Hernández"
"occ_159","sp_1",17.28596,-96.106,"Mexico","Omar Hernández"
"occ_160","sp_1",16.91013,-95.76497,"Mexico","Ana Martínez"
"occ_161","sp_1",17.28263,-96.08487,"Mexico","Omar Hernández"
"occ_162","sp_1",17.26353,-95.9724,"Mexico","Omar Hernández"
"occ_163","sp_1",17.20571,-95.84481,"Mexico","Jhovani Sánchez"
"occ_164","sp_1",8.519437,-83.590836,"Costa Rica","James Telford"
"occ_165","sp_1",17.303882,-91.275536,"Mexico",NA
"occ_166","sp_1",9.602576,-83.85226,"Costa Rica",NA
"occ_167","sp_1",9.734175,-83.895155,"Costa Rica","Gabriel Camilo Jaramillo Giraldo"
"occ_168","sp_1",17.27451,-95.98544,"Mexico","Omar Hernández"
"occ_169","sp_1",18.321341,-89.950285,"Mexico",NA
"occ_170","sp_1",18.532973,-89.929461,"Mexico",NA
"occ_171","sp_1",9.571538,-83.747418,"Costa Rica","Nate Hartley"
"occ_172","sp_1",10.014132,-83.998091,"Costa Rica",NA
"occ_173","sp_1",9.630358,-83.876669,"Costa Rica","Pete Woodall"
"occ_174","sp_1",18.06564,-89.606746,"Mexico","Erika Jasmin Cruz-Bazan"
"occ_175","sp_1",17.26229,-96.07621,"Mexico","Omar Hernández"
"occ_176","sp_1",16.91013,-95.76497,"Mexico","Jhovani Sánchez"
"occ_177","sp_1",17.2782,-96.05374,"Mexico","Omar Hernández"
"occ_178","sp_1",17.20518,-95.79919,"Mexico","Jhovani Sánchez"
"occ_179","sp_1",16.90922,-95.78305,"Mexico","Ana Martínez"
"occ_180","sp_1",16.91608,-95.76804,"Mexico","Jhovani Sánchez"
"occ_181","sp_1",9.284124,-83.931902,"Costa Rica",NA
"occ_182","sp_1",8.469394,-83.62807,"Costa Rica",NA
"occ_183","sp_1",17.20006,-95.85864,"Mexico","Jhovani Sánchez"
"occ_184","sp_1",17.228247,-96.103268,"Mexico","Eugenio Padilla"
"occ_185","sp_1",16.118164,-90.823045,"Mexico",NA
"occ_186","sp_1",16.505548,-88.928074,"Belize","Bernardo Zorrilla Garza"
"occ_187","sp_1",17.950544,-89.581664,"Mexico",NA
"occ_188","sp_1",18.618815,-89.202368,"Mexico",NA
"occ_189","sp_1",8.425879,-83.437215,"Costa Rica","gringocurt"
"occ_190","sp_1",17.24506,-95.97483,"Mexico","Omar Hernández"
"occ_191","sp_1",17.21155,-95.85102,"Mexico","Omar Hernández"
"occ_192","sp_1",18.002499,-89.659017,"Mexico",NA
"occ_193","sp_1",8.404074,-83.483422,"Costa Rica","Francis Joyce"
"occ_194","sp_1",17.25043,-95.96587,"Mexico","Omar Hernández"
"occ_195","sp_1",15.880364,-93.131845,"Mexico",NA
"occ_196","sp_1",8.739544,-83.473208,"Costa Rica","Emmanuel Rodríguez Rojas"
"occ_197","sp_1",10.731977,-85.153006,"Costa Rica","Tapir Valley Nature Reserve"
"occ_198","sp_1",17.27929,-96.06856,"Mexico","Catalina Vázquez"
"occ_199","sp_1",17.2782,-96.05374,"Mexico","Catalina Vázquez"
"occ_200","sp_1",17.28596,-96.106,"Mexico","Catalina Vázquez"
"occ_201","sp_1",10.282692,-84.112752,"Costa Rica",NA
"occ_202","sp_1",17.29494,-96.0962,"Mexico","Catalina Vázquez"
"occ_203","sp_1",17.23617,-91.36737,"Mexico",NA
"occ_204","sp_1",16.450878,-88.62424,"Belize","Lauren diBiccari"
"occ_205","sp_2",-19.411076,-56.87473,"Brazil","Rafael Albo"
"occ_206","sp_2",-3.93553,-46.994301,"Brazil","gustavogonsioroski"
"occ_207","sp_2",0.14218,-76.80734,"Ecuador","C Hewitt"
"occ_208","sp_2",-0.994552,-75.296195,"Ecuador","Selena Santillan"
"occ_209","sp_2",-1.130963,-75.974939,"Ecuador","rudygelis"
"occ_210","sp_2",-1.026435,-77.511774,"Ecuador","amazoonico"
"occ_211","sp_2",-0.615144,-75.557416,"Ecuador","aemontoya22"
"occ_212","sp_2",-1.199226,-77.418186,"Ecuador","amazoonico"
"occ_213","sp_2",-1.067539,-77.571721,"Ecuador","amazoonico"
"occ_214","sp_2",-1.129486,-77.547922,"Ecuador","amazoonico"
"occ_215","sp_2",-1.009268,-77.443717,"Ecuador","amazoonico"
"occ_216","sp_2",-0.904055,-77.883026,"Ecuador","amazoonico"
"occ_217","sp_2",-0.699074,-76.794391,"Ecuador","gonzalonazati"
"occ_218","sp_2",-1.1238,-77.513429,"Ecuador","amazoonico"
"occ_219","sp_2",-16.491166,-56.799905,"Brazil","Jake Mohlmann"
"occ_220","sp_2",-9.416269,-55.922245,"Brazil","Jake Mohlmann"
"occ_221","sp_2",-0.562249,-76.552691,"Ecuador","Diego Naranjo"
"occ_222","sp_2",-0.59668,-76.477372,"Ecuador","Diego Naranjo"
"occ_223","sp_2",-0.521768,-76.58819,"Ecuador","Diego Naranjo"
"occ_224","sp_2",-0.70853,-76.856095,"Ecuador","Diego Naranjo"
"occ_225","sp_2",-0.552554,-76.498684,"Ecuador","C Hewitt"
"occ_226","sp_2",-0.738899,-76.03417,"Ecuador","jorgebrito"
"occ_227","sp_2",-1.140962,-77.433059,"Ecuador","amazoonico"
"occ_228","sp_2",-0.709626,-76.241479,"Ecuador","zacpfeifer"
"occ_229","sp_2",-1.057082,-77.44559,"Ecuador","amazoonico"
"occ_230","sp_2",-1.199567,-77.571711,"Ecuador","amazoonico"
"occ_231","sp_2",-15.714734,-47.901575,"Brazil","barbarathompson"
"occ_232","sp_2",-9.446021,-55.959182,"Brazil","francisvolh"
"occ_233","sp_2",-1.154337,-77.573014,"Ecuador","amazoonico"
"occ_234","sp_2",-1.042391,-77.581053,"Ecuador","amazoonico"
"occ_235","sp_2",-1.184828,-77.491955,"Ecuador","amazoonico"
"occ_236","sp_2",-18.867188,-56.712812,"Brazil","Mariana Ferreira Piñeiro"
"occ_237","sp_2",-1.002801,-77.539093,"Ecuador","Felipe Campos"
"occ_238","sp_2",-1.047699,-77.496363,"Ecuador","amazoonico"
"occ_239","sp_2",-1.195438,-77.592142,"Ecuador","amazoonico"
"occ_240","sp_2",-26.609765,-54.448267,"Argentina","Guillermo Cena"
"occ_241","sp_2",-12.244692,-68.806923,"Peru","Joseph See"
"occ_242","sp_2",-25.899055,-54.029815,"Argentina","Guille Ivan Spajic"
"occ_243","sp_2",-1.190373,-77.597505,"Ecuador","amazoonico"
"occ_244","sp_2",-1.017128,-77.486168,"Ecuador","amazoonico"
"occ_245","sp_2",-12.261606,-68.873403,"Peru","Diego Balbuena"
"occ_246","sp_2",-1.017041,-77.516295,"Ecuador","Edison Araguillin"
"occ_247","sp_2",-10.797267,-46.670057,"Brazil","Marcelo Barbosa"
"occ_248","sp_2",-1.020331,-77.502802,"Ecuador","Ben"
"occ_249","sp_2",-1.090163,-77.584062,"Ecuador","Michele Chiacchio"
"occ_250","sp_2",-9.450798,-55.905094,"Brazil","Sidnei Dantas"
"occ_251","sp_2",-1.115948,-77.653756,"Ecuador","Michele Chiacchio"
"occ_252","sp_2",4.475005,-52.514658,"French Guiana","Guillaume Delaitre"
"occ_253","sp_2",-1.117186,-77.4738,"Ecuador","Jaime Marcelo Aranda Sánchez"
"occ_254","sp_2",-1.17152,-77.502911,"Ecuador","Jaime Marcelo Aranda Sánchez"
"occ_255","sp_2",-0.825864,-77.961978,"Ecuador","Mayra"
"occ_256","sp_2",-9.58235,-55.974995,"Brazil","Sidnei Dantas"
"occ_257","sp_2",-16.863157,-56.802592,"Brazil","deboas"
"occ_258","sp_2",-1.154044,-77.482396,"Ecuador","Jaime Marcelo Aranda Sánchez"
"occ_259","sp_2",-1.012431,-77.548471,"Ecuador","pablo_moreno"
"occ_260","sp_2",-1.133943,-77.456912,"Ecuador","pablo_moreno"
"occ_261","sp_2",-3.876696,-78.574078,"Ecuador","Angel Mario Hualpa Erazo"
"occ_262","sp_2",-15.650912,-47.841339,"Brazil","Eric Fischer Rempe"
"occ_263","sp_2",4.451914,-52.394365,"French Guiana","ombeline_sculfort"
"occ_264","sp_2",-1.077964,-77.446247,"Ecuador","pablo_moreno"
"occ_265","sp_2",-0.87989,-77.966151,"Ecuador","Michele Chiacchio"
"occ_266","sp_2",-0.03157,-78.934425,"Ecuador","manuelaortiz"
"occ_267","sp_2",-19.599153,-52.540102,"Brazil","Edgar Blois Crispino"
"occ_268","sp_2",0.112033,-76.707509,"Ecuador","marcosjg"
"occ_269","sp_2",-1.039691,-77.532339,"Ecuador","amazoonico"
"occ_270","sp_2",-11.73314,-70.858635,"Peru","Marcel Carita Vaz"
"occ_271","sp_2",-12.865813,-69.562805,"Peru","Simon Kiacz"
"occ_272","sp_2",-1.156698,-77.547188,"Ecuador","lotteryd"
"occ_273","sp_2",3.523247,-73.406327,"Colombia",NA
"occ_274","sp_2",3.523936,-73.40724,"Colombia",NA
"occ_275","sp_2",-1.108741,-77.486807,"Ecuador","lotteryd"
"occ_276","sp_2",-0.464533,-76.231874,"Ecuador","Felipe Campos"
"occ_277","sp_2",-23.71238,-64.993074,"Argentina","Leonel Roget"
"occ_278","sp_2",-1.04293,-77.430129,"Ecuador","lotteryd"
"occ_279","sp_2",-18.11862,-53.385313,"Brazil","Diego Santana"
"occ_280","sp_2",-1.043065,-77.514998,"Ecuador","amazoonico"
"occ_281","sp_2",-1.116339,-77.544918,"Ecuador","amazoonico"
"occ_282","sp_2",-1.130952,-77.538723,"Ecuador","amazoonico"
"occ_283","sp_2",-1.061354,-77.513707,"Ecuador","amazoonico"
"occ_284","sp_2",-1.190162,-77.582119,"Ecuador","amazoonico"
"occ_285","sp_2",2.051383,-73.930896,"Colombia","Alexander Mejia"
"occ_286","sp_2",-1.092165,-77.578508,"Ecuador","lotteryd"
"occ_287","sp_2",-22.451105,-42.771084,"Brazil",NA
"occ_288","sp_2",-1.173579,-77.576543,"Ecuador","amazoonico"
"occ_289","sp_2",-0.922268,-76.217263,"Ecuador","antonsrkn"
"occ_290","sp_2",-1.180909,-77.442039,"Ecuador","amazoonico"
"occ_291","sp_2",-1.039102,-77.531264,"Ecuador","lotteryd"
"occ_292","sp_2",-1.06156,-77.491991,"Ecuador","amazoonico"
"occ_293","sp_2",3.287045,-61.470066,"Brazil","crax"
"occ_294","sp_2",-1.035994,-77.452019,"Ecuador","amazoonico"
"occ_295","sp_2",-1.199908,-77.408253,"Ecuador","amazoonico"
"occ_296","sp_2",-1.063295,-77.49315,"Ecuador","amazoonico"
"occ_297","sp_2",-1.160312,-77.431039,"Ecuador","amazoonico"
"occ_298","sp_2",-15.750033,-47.925333,"Brazil","kfp"
"occ_299","sp_2",-0.883232,-77.827398,"Ecuador","Amaël Borzée"
"occ_300","sp_2",-1.036432,-77.570282,"Ecuador","Amaël Borzée"
"occ_301","sp_2",-1.143815,-77.475882,"Ecuador","Amaël Borzée"
"occ_302","sp_2",-25.994788,-54.121007,"Argentina","Ken Chamberlain"
"occ_303","sp_2",-15.782482,-47.811867,"Brazil","Onildo João Marini Filho"
"occ_304","sp_2",-1.171083,-77.465628,"Ecuador","amazoonico"
"occ_305","sp_2",-25.639089,-54.444974,"Argentina","IMiBio"
"occ_306","sp_2",-15.735155,-47.924085,"Brazil","barbarathompson"
"occ_307","sp_2",-15.771356,-47.938843,"Brazil","Claudia Rocha-Campos"
"occ_308","sp_2",4.597193,-57.370185,"Suriname","Paul Cools"
"occ_309","sp_2",-1.187348,-77.443492,"Ecuador","amazoonico"
"occ_310","sp_2",-1.068229,-77.535887,"Ecuador","amazoonico"
"occ_311","sp_2",-1.090819,-77.537378,"Ecuador","amazoonico"
"occ_312","sp_2",3.523868,-73.406574,"Colombia",NA
"occ_313","sp_2",-1.072916,-77.471897,"Ecuador","amazoonico"
"occ_314","sp_2",-1.093458,-77.548536,"Ecuador","amazoonico"
"occ_315","sp_2",-0.010139,-74.778583,"Colombia","F. Peña"
"occ_316","sp_2",0.067309,-72.445533,"Colombia",NA
"occ_317","sp_2",-1.050551,-77.534868,"Ecuador","amazoonico"
"occ_318","sp_2",-1.064033,-77.563696,"Ecuador","amazoonico"
"occ_319","sp_2",-1.100208,-77.542633,"Ecuador","amazoonico"
"occ_320","sp_2",-1.113205,-77.462554,"Ecuador","amazoonico"
"occ_321","sp_2",-1.163067,-77.446641,"Ecuador","amazoonico"
"occ_322","sp_2",-1.153443,-77.572849,"Ecuador","amazoonico"
"occ_323","sp_2",-1.082782,-77.437797,"Ecuador","amazoonico"
"occ_324","sp_2",-1.018684,-77.425251,"Ecuador","amazoonico"
"occ_325","sp_2",-0.728784,-76.001561,"Ecuador","Damian Zabala"
"occ_326","sp_2",-1.029707,-77.476841,"Ecuador","amazoonico"
"occ_327","sp_2",-1.023565,-77.456317,"Ecuador","amazoonico"
"occ_328","sp_2",-1.177495,-77.409672,"Ecuador","amazoonico"
"occ_329","sp_2",-1.135385,-77.407572,"Ecuador","amazoonico"
"occ_330","sp_2",-0.627963,-76.186782,"Ecuador","Damian Zabala"
"occ_331","sp_2",-9.45665,-55.886007,"Brazil","Stephen_WV"
"occ_332","sp_2",-14.034925,-47.631731,"Brazil","Onildo João Marini Filho"
"occ_333","sp_2",-23.375135,-47.369906,"Brazil","Sandro Von Matter"
"occ_334","sp_2",-1.138355,-77.583066,"Ecuador","amazoonico"
"occ_335","sp_2",-23.624417,-64.970358,"Argentina","Germán González"
"occ_336","sp_2",-0.575488,-76.017226,"Ecuador","lisakoetke"
"occ_337","sp_2",-1.111231,-77.535035,"Ecuador","amazoonico"
"occ_338","sp_2",-1.124959,-77.464511,"Ecuador","lotteryd"
"occ_339","sp_2",-1.172411,-77.459206,"Ecuador","amazoonico"
"occ_340","sp_2",-22.47306,-42.692057,"Brazil","Francis Reyes"
"occ_341","sp_2",-23.281936,-47.346467,"Brazil","Sandro Von Matter"
"occ_342","sp_2",-12.238904,-70.73917,"Peru","pfaucher"
"occ_343","sp_2",-12.28558,-70.670277,"Peru","pfaucher"
"occ_344","sp_2",-13.108859,-71.479382,"Peru","Diego Balbuena"
"occ_345","sp_2",-22.523513,-42.622295,"Brazil","Stan Rullman, PhD"
"occ_346","sp_2",-1.029426,-77.433682,"Ecuador","amazoonico"
"occ_347","sp_2",-1.071554,-77.5138,"Ecuador","amazoonico"
"occ_348","sp_2",-12.58342,-70.184266,"Peru","Reid Rumelt"
"occ_349","sp_2",-15.701611,-47.981456,"Brazil","Onildo João Marini Filho"
"occ_350","sp_2",-12.23937,-70.695259,"Peru","pfaucher"
"occ_351","sp_2",-1.093582,-77.424096,"Ecuador","amazoonico"
"occ_352","sp_2",-16.454048,-56.230293,"Brazil","Eric Fischer Rempe"
"occ_353","sp_2",-1.129782,-77.464773,"Ecuador","amazoonico"
"occ_354","sp_2",-16.422131,-56.759094,"Brazil","docprt"
"occ_355","sp_2",-16.522247,-56.716485,"Brazil","docprt"
"occ_356","sp_2",-1.013776,-77.58749,"Ecuador","amazoonico"
"occ_357","sp_2",-18.824153,-61.06258,"Bolivia (Plurinational State of)","janconl"
"occ_358","sp_2",-16.393875,-39.016979,"Brazil","deboas"
"occ_359","sp_2",-1.00018,-77.418116,"Ecuador","amazoonico"
"occ_360","sp_2",-1.152008,-77.516295,"Ecuador","amazoonico"
"occ_361","sp_2",-3.43471,-73.168208,"Peru","lauraleaney"
"occ_362","sp_2",-17.356491,-56.671852,"Brazil","Millie Basden"
"occ_363","sp_2",-12.507185,-70.04075,"Peru","Reid Rumelt"
"occ_364","sp_2",-0.63656,-75.979901,"Ecuador","Willian Becerra"
"occ_365","sp_2",-1.12621,-77.430791,"Ecuador","sofianogales"
"occ_366","sp_2",-1.184329,-77.46671,"Ecuador","amazoonico"
"occ_367","sp_2",-0.996816,-75.981195,"Ecuador","Alexandra Buri"
"occ_368","sp_2",-1.065233,-77.479946,"Ecuador","amazoonico"
"occ_369","sp_2",-16.7652,-56.931919,"Brazil","Allan Hopkins"
"occ_370","sp_2",-16.488859,-56.778544,"Brazil","Allan Hopkins"
"occ_371","sp_2",-0.642777,-77.727437,"Ecuador","Abel Gallo Pérez"
"occ_372","sp_2",-1.08383,-77.440658,"Ecuador","amazoonico"
"occ_373","sp_2",-18.2409,-52.939765,"Brazil","Ricardo Ribeiro"
"occ_374","sp_2",-17.390335,-56.727103,"Brazil","docprt"
"occ_375","sp_2",-25.999382,-54.020526,"Argentina","emiliano_yguazu"
"occ_376","sp_2",-19.209125,-55.760853,"Brazil","Andy Jones"
"occ_377","sp_2",-16.928657,-56.20526,"Brazil","andersonwarkentin"
"occ_378","sp_2",-3.439464,-72.976306,"Peru","Diego Balbuena"
"occ_379","sp_2",-1.129739,-76.828489,"Ecuador","Amy Miles"
"occ_380","sp_2",-9.859813,-58.311717,"Brazil","Brooke Smith"
"occ_381","sp_2",-16.724238,-56.959256,"Brazil","Paul Prior"
"occ_382","sp_2",-1.064267,-77.445931,"Ecuador","Francisco Prieto Albuja"
"occ_383","sp_2",-1.052187,-77.449827,"Ecuador","amazoonico"
"occ_384","sp_2",-1.138372,-77.482491,"Ecuador","amazoonico"
"occ_385","sp_2",-1.164456,-77.533125,"Ecuador","amazoonico"
"occ_386","sp_2",-1.019243,-77.598629,"Ecuador","amazoonico"
"occ_387","sp_2",-1.174558,-77.532494,"Ecuador","amazoonico"
"occ_388","sp_2",-1.067381,-77.413147,"Ecuador","amazoonico"
"occ_389","sp_2",-9.459532,-55.814764,"Brazil","Fábio Olmos"
"occ_390","sp_2",-9.442471,-55.959402,"Brazil","Carlos Sanchez"
"occ_391","sp_2",-16.685948,-56.887101,"Brazil","Eric Carpenter"
"occ_392","sp_2",-12.700071,-71.142541,"Peru","Diego Balbuena"
"occ_393","sp_2",-12.808703,-69.521435,"Peru","Will Sweet"
"occ_394","sp_2",-8.88025,-59.029257,"Brazil","Paulo Henrique Bonavigo"
"occ_395","sp_2",1.260049,-60.921825,"Brazil","abcdefgewing"
"occ_396","sp_2",-1.138205,-77.48883,"Ecuador","amazoonico"
"occ_397","sp_2",-1.18038,-77.532826,"Ecuador","amazoonico"
"occ_398","sp_2",-1.161847,-77.578657,"Ecuador","amazoonico"
"occ_399","sp_2",-1.182857,-77.525996,"Ecuador","amazoonico"
"occ_400","sp_2",-1.129499,-77.464421,"Ecuador","amazoonico"
"occ_401","sp_2",-1.018795,-77.513552,"Ecuador","amazoonico"
"occ_402","sp_2",-12.272261,-70.656935,"Peru","pbulman"
"occ_403","sp_2",-22.424485,-52.379248,"Brazil","Andréa Soares Pires"
"occ_404","sp_2",-16.758706,-56.968958,"Brazil","Matthieu Berroneau"
"occ_405","sp_2",-1.180056,-77.412692,"Ecuador","amazoonico"
"occ_406","sp_2",-1.169484,-77.923675,"Ecuador","amazoonico"
"occ_407","sp_2",-1.14456,-77.547501,"Ecuador","amazoonico"
"occ_408","sp_2",-1.070889,-77.526141,"Ecuador","amazoonico"
"occ_409","sp_2",-1.081757,-77.522196,"Ecuador","amazoonico"
"occ_410","sp_2",-12.918865,-69.34042,"Peru","Bobby McCabe"
"occ_411","sp_2",-15.756445,-47.998582,"Brazil","Eric Fischer Rempe"
"occ_412","sp_2",-0.750499,-76.182419,"Ecuador","Ben"
"occ_413","sp_2",-0.782759,-76.21587,"Ecuador","Jane Widness"
"occ_414","sp_2",4.386554,-58.877545,"Guyana","Paul Prior"
"occ_415","sp_2",4.937382,-70.2972,"Colombia","Bobby McCabe"
"occ_416","sp_2",0.096056,-70.99525,"Colombia",NA
"occ_417","sp_2",0.092694,-70.992528,"Colombia",NA
"occ_418","sp_2",0.097417,-70.993694,"Colombia",NA
"occ_419","sp_2",0.095528,-70.996139,"Colombia",NA
"occ_420","sp_2",0.138722,-70.950389,"Colombia",NA
"occ_421","sp_2",0.022056,-71.002028,"Colombia","Darwin M. Morales-Martínez"
"occ_422","sp_2",-4.714437,-78.62537,"Ecuador","ronalnaturalist"
"occ_423","sp_2",1.285306,-72.626222,"Colombia",NA
"occ_424","sp_2",1.285417,-72.621972,"Colombia",NA
"occ_425","sp_2",1.284278,-72.626333,"Colombia",NA
"occ_426","sp_2",0.898709,-76.878418,"Colombia","Bobby McCabe"
"occ_427","sp_2",-24.346355,-48.470452,"Brazil","Ericson Cernawsky Igual"
"occ_428","sp_2",-12.738673,-69.136223,"Peru","Annika Lindqvist"
"occ_429","sp_2",-22.566319,-52.349749,"Brazil","Sandro Von Matter"
"occ_430","sp_2",-22.506355,-52.313879,"Brazil",NA
"occ_431","sp_2",-22.518266,-52.235899,"Brazil","Sandro Von Matter"
"occ_432","sp_2",5.619843,-68.521754,"Colombia","Federico Mosquera-Guerra | Mónica Páez | Andrés Vargas-Pérez"
"occ_433","sp_2",5.613127,-68.523584,"Colombia","Federico Mosquera-Guerra | Mónica Páez | Andrés Vargas-Pérez"
"occ_434","sp_2",5.61319,-68.524456,"Colombia","Federico Mosquera-Guerra | Mónica Páez | Andrés Vargas-Pérez"
"occ_435","sp_2",5.618394,-68.522117,"Colombia","Federico Mosquera-Guerra | Mónica Páez | Andrés Vargas-Pérez"
"occ_436","sp_2",5.57956,-68.518988,"Colombia","Federico Mosquera-Guerra | Mónica Páez | Andrés Vargas-Pérez"
"occ_437","sp_2",-22.594532,-52.29878,"Brazil","Andréa Soares Pires"
"occ_438","sp_2",-24.333486,-48.219329,"Brazil","luizfernandofigueiredo"
"occ_439","sp_2",-1.03988,-77.560292,"Ecuador","amazoonico"
"occ_440","sp_2",-1.193641,-75.806667,"Ecuador","miguelaporta"
"occ_441","sp_2",-15.628325,-47.921245,"Brazil","Onildo João Marini Filho"
"occ_442","sp_2",-0.463284,-76.345894,"Ecuador","Tom Turner"
"occ_443","sp_2",-12.052561,-71.18054,"Peru","Kate Goodenough"
"occ_444","sp_2",-1.131428,-77.459376,"Ecuador","lotteryd"
"occ_445","sp_2",-23.756487,-64.416856,"Argentina","Diego Alfonso Rosa"
"occ_446","sp_2",-1.124634,-77.596054,"Ecuador","lotteryd"
"occ_447","sp_2",-9.459847,-55.82626,"Brazil","Sidnei Dantas"
"occ_448","sp_2",-1.056125,-77.474706,"Ecuador","lotteryd"
"occ_449","sp_2",-3.351033,-47.676265,"Brazil","Ricardo Ribeiro"
"occ_450","sp_2",-19.0621,-40.152471,"Brazil","Flávio Mendes"
"occ_451","sp_2",-16.617871,-56.936936,"Brazil","guyincognito"
"occ_452","sp_2",-14.306555,-50.985232,"Brazil",NA
"occ_453","sp_2",-1.03793,-77.574623,"Ecuador","amazoonico"
"occ_454","sp_2",-14.002995,-47.631351,"Brazil","Danilo Correa"
"occ_455","sp_2",-1.12965,-77.434537,"Ecuador","amazoonico"
"occ_456","sp_2",-16.586121,-56.783918,"Brazil","tadkawecki"
"occ_457","sp_2",-13.498476,-56.611519,"Brazil",NA
"occ_458","sp_2",-15.442202,-55.825745,"Brazil",NA
"occ_459","sp_2",-9.756327,-56.347431,"Brazil",NA
"occ_460","sp_2",-9.645191,-56.144005,"Brazil",NA
"occ_461","sp_2",-9.251096,-56.16584,"Brazil","birdwatcher"
"occ_462","sp_2",-22.468358,-52.314607,"Brazil","Andréa Soares Pires"
"occ_463","sp_2",-28.360222,-57.393187,"Argentina","Victoria Lassaga"
"occ_464","sp_2",-0.951285,-77.962258,"Ecuador","cdillingham"
"occ_465","sp_2",-22.538886,-42.796456,"Brazil","ria-vogels"
"occ_466","sp_2",-28.695579,-57.502778,"Argentina","Jens-Christian Svenning"
"occ_467","sp_2",-9.383112,-49.874839,"Brazil","Sidnei Dantas"
"occ_468","sp_2",-0.574514,-76.991535,"Ecuador","Diego Naranjo"
"occ_469","sp_2",-6.556361,-50.234822,"Brazil","nereston-camargo"
"occ_470","sp_2",-22.454234,-42.709953,"Brazil","Jean-Paul Boerekamps"
"occ_471","sp_2",-22.470199,-42.60446,"Brazil","jacrie"
"occ_472","sp_2",-22.47732,-42.726261,"Brazil","ria-vogels"
"occ_473","sp_2",-22.531195,-42.735353,"Brazil","Julio Almeida"
"occ_474","sp_2",-22.406901,-42.611509,"Brazil","lowiegiesbertz"
"occ_475","sp_2",-22.458366,-42.604529,"Brazil","lowiegiesbertz"
"occ_476","sp_2",-22.407289,-42.627488,"Brazil","lowiegiesbertz"
"occ_477","sp_2",4.134978,-73.626139,"Colombia","Teodoro Chivatá Bedoya"
"occ_478","sp_2",-1.090596,-77.568081,"Ecuador","amazoonico"
"occ_479","sp_2",-1.105145,-77.476746,"Ecuador","amazoonico"
"occ_480","sp_2",-1.085307,-77.596899,"Ecuador","amazoonico"
"occ_481","sp_2",-20.097312,-43.506691,"Brazil","Pedro Henrique Maloso Ramos"
"occ_482","sp_2",3.518666,-73.399514,"Colombia",NA
"occ_483","sp_2",3.937028,-67.703494,"Colombia","Nicola Flanagan"
"occ_484","sp_2",4.9267,-55.19005,"Suriname","Marco P. Ouboter | Dimitri A. Ouboter"
"occ_485","sp_2",4.92541,-55.22016,"Suriname","Marco P. Ouboter | Dimitri A. Ouboter"
"occ_486","sp_2",6.71205,-70.198633,"Colombia","Ángela Alviz"
"occ_487","sp_2",6.667,-70.496717,"Colombia","Ángela Alviz"
"occ_488","sp_2",-15.915129,-52.383703,"Brazil","rupestreherbert"
"occ_489","sp_2",5.551506,-68.468368,"Colombia","Vladimir Rojas Díaz"
"occ_490","sp_2",4.91675,-55.22073,"Suriname","Marco P. Ouboter | Dimitri A. Ouboter"
"occ_491","sp_2",5.575225,-68.466863,"Colombia","Vladimir Rojas Díaz"
"occ_492","sp_2",5.609586,-68.5909,"Colombia","Vladimir Rojas Díaz"
"occ_493","sp_2",-25.027156,-61.166157,"Argentina","Guille Ivan Spajic"
"occ_494","sp_2",5.60531,-68.60195,"Colombia","Beatriz Henao Bustamante"
"occ_495","sp_2",5.59818,-68.60045,"Colombia","Beatriz Henao Bustamante"
"occ_496","sp_2",5.59737,-68.56256,"Colombia","Beatriz Henao Bustamante"
"occ_497","sp_2",5.60711,-68.54135,"Colombia","Beatriz Henao Bustamante"
"occ_498","sp_2",5.59546,-68.49688,"Colombia","Beatriz Henao Bustamante"
"occ_499","sp_2",5.6254,-68.49163,"Colombia","Beatriz Henao Bustamante"
"occ_500","sp_2",5.57257,-68.45916,"Colombia","Beatriz Henao Bustamante"
"occ_501","sp_2",5.57441,-68.47934,"Colombia","Beatriz Henao Bustamante"
"occ_502","sp_2",5.53916,-68.43658,"Colombia","Beatriz Henao Bustamante"
"occ_503","sp_2",5.59259,-68.44737,"Colombia","Beatriz Henao Bustamante"
"occ_504","sp_2",5.56847,-68.47611,"Colombia","Beatriz Henao Bustamante"
"occ_505","sp_2",5.57659,-68.48576,"Colombia","Beatriz Henao Bustamante"
"occ_506","sp_2",-25.212775,-60.978556,"Argentina","Leonel Roget"
"occ_507","sp_2",-20.770706,-56.794676,"Brazil","aguaraguazu"
"occ_508","sp_2",-3.765985,-59.81914,"Brazil","gillbsydney"
"occ_509","sp_2",-14.175796,-47.796794,"Brazil","Donald Hobern"
"occ_510","sp_2",-28.614482,-57.514452,"Argentina","Juan José Bonanno"
"occ_511","sp_2",5.61044,-68.46509,"Colombia","Beatriz Henao Bustamante"
"occ_512","sp_2",-15.655705,-48.131368,"Brazil","Onildo João Marini Filho"
"occ_513","sp_2",4.92955,-55.20847,"Suriname","Marco P. Ouboter | Dimitri A. Ouboter"
"occ_514","sp_2",-16.775555,-56.949039,"Brazil","Scott Buckel"
"occ_515","sp_2",-16.770043,-57.867531,"Brazil","Douglas Trent"
"occ_516","sp_2",-16.651801,-57.905658,"Brazil","Douglas Trent"
"occ_517","sp_2",4.93047,-55.21643,"Suriname","Marco P. Ouboter | Dimitri A. Ouboter"
"occ_518","sp_2",-17.031238,-56.837772,"Brazil","Jim Moore (Maryland)"
"occ_519","sp_2",-3.647941,-73.392809,"Peru","charleyhesse"
"occ_520","sp_2",-3.774156,-73.238493,"Peru","charleyhesse"
"occ_521","sp_2",-15.980613,-47.999982,"Brazil","Onildo João Marini Filho"
"occ_522","sp_2",-12.919001,-71.506426,"Peru","Tom"
"occ_523","sp_2",-6.781374,-49.231506,"Brazil","Anderson Sandro"
"occ_524","sp_2",-19.87126,-56.20352,"Brazil","avocat"
"occ_525","sp_2",-11.880901,-71.594881,"Peru","christinamaria"
"occ_526","sp_2",4.221831,-58.822471,"Guyana","Bill Crins"
"occ_527","sp_2",-22.498632,-52.250952,"Brazil","Andréa Soares Pires"
"occ_528","sp_2",-0.784193,-76.316951,"Ecuador","Robby Deans"
"occ_529","sp_2",-17.637659,-63.864189,"Bolivia (Plurinational State of)","Nicolas Olejnik"
"occ_530","sp_2",-0.903578,-75.469441,"Ecuador","Ulises Balza"
"occ_531","sp_2",-0.917845,-75.526486,"Ecuador","Ulises Balza"
"occ_532","sp_2",4.182133,-73.719833,"Colombia","Laura Pirateque"
"occ_533","sp_2",-19.074557,-40.176281,"Brazil","Marcio Santos Ferreira"
"occ_534","sp_2",-0.674108,-76.233306,"Ecuador","thom"
"occ_535","sp_2",-0.78511,-76.228948,"Ecuador","ar_maclaren"
"occ_536","sp_2",-0.700265,-76.200238,"Ecuador","jasminehernandez"
"occ_537","sp_2",-0.66712,-76.272919,"Ecuador","Elizabeth Cihlar"
"occ_538","sp_2",-22.59247,-59.663543,"Paraguay","pfaucher"
"occ_539","sp_2",-2.534426,-59.700022,"Brazil","Marcel Carita Vaz"
"occ_540","sp_2",-11.813674,-57.357672,"Brazil","Jay"
"occ_541","sp_2",-17.631051,-57.277155,"Brazil","Jay"
"occ_542","sp_2",-12.317448,-70.614552,"Peru","Ben"
"occ_543","sp_2",-20.658675,-59.813213,"Paraguay","pfaucher"
"occ_544","sp_2",-1.016603,-75.717749,"Ecuador","thom"
"occ_545","sp_2",-19.588499,-56.087017,"Brazil",NA
"occ_546","sp_2",-0.744166,-76.10932,"Ecuador","sofianogales"
"occ_547","sp_2",2.261,-73.793,"Colombia","Angélica Diaz Pulido | Tatiana Velásquez | Armando López | José Alfonso | Hugo Mantilla Meluk"
"occ_548","sp_2",-19.074833,-40.104381,"Brazil","Bill Crins"
"occ_549","sp_2",-19.056324,-40.105463,"Brazil","Bill Crins"
"occ_550","sp_2",3.628018,-58.632467,"Guyana","Bruce Bennett"
"occ_551","sp_2",4.9267,-55.19005,"Suriname","Marco Ouboter"
"occ_552","sp_2",5.08652,-52.78157,"French Guiana","Non renseigné (Non renseigné)"
"occ_553","sp_2",5.934317,-71.457083,"Colombia","Andres F. García Londoño"
"occ_554","sp_2",2.23402,-54.45005,"French Guiana","Dewynter Mael (Non renseigné)"
"occ_555","sp_2",5.44486,-53.68462,"French Guiana","Non renseigné (Non renseigné)"
"occ_556","sp_2",-0.74875,-76.372719,"Ecuador","sofianogales"
"occ_557","sp_2",-0.718104,-76.348352,"Ecuador","sofianogales"
"occ_558","sp_2",-19.112619,-40.091145,"Brazil","Michal Sloviak"
"occ_559","sp_2",7.169611,-74.352694,"Colombia","William Yezid Bonell Rojas"
"occ_560","sp_2",7.168611,-74.352583,"Colombia","William Yezid Bonell Rojas"
"occ_561","sp_3",-0.316876,-78.083831,"Ecuador","zacpfeifer"
"occ_562","sp_3",-0.717952,-77.999737,"Ecuador","matt_whitbeck"
"occ_563","sp_3",4.763309,-75.633149,"Colombia","westerntanager"
"occ_564","sp_3",-0.467604,-78.285168,"Ecuador","Luis Yupa"
"occ_565","sp_3",-0.573515,-78.145742,"Ecuador","Luis Yupa"
"occ_566","sp_3",2.278414,-76.386204,"Colombia","gustavopisso"
"occ_567","sp_3",-4.113452,-79.382626,"Ecuador","Francisco Prieto Albuja"
"occ_568","sp_3",2.231615,-76.220789,"Colombia","Sebastián Berrío"
"occ_569","sp_3",-0.289658,-78.071378,"Ecuador","dushenkov"
"occ_570","sp_3",-0.215449,-78.026544,"Ecuador","Luis Yupa"
"occ_571","sp_3",4.66022,-75.570593,"Colombia","Aurélie Letort"
"occ_572","sp_3",-0.809224,-78.33647,"Ecuador","miguelaporta"
"occ_573","sp_3",0.391648,-78.031045,"Ecuador","Andres Laguna"
"occ_574","sp_3",4.654574,-75.435137,"Colombia","Julian Alzate"
"occ_575","sp_3",-0.738437,-77.840065,"Ecuador","David Weaver"
"occ_576","sp_3",0.291433,-78.073013,"Ecuador","Andres Laguna"
"occ_577","sp_3",4.639366,-75.495341,"Colombia","Alexander Montoya"
"occ_578","sp_3",-0.227763,-78.091926,"Ecuador","josiahclark"
"occ_579","sp_3",-0.594383,-77.808007,"Ecuador","Bert Harris"
"occ_580","sp_3",-0.497163,-77.862301,"Ecuador","Howard Friedman"
"occ_581","sp_3",-0.549204,-77.838913,"Ecuador","Howard Friedman"
"occ_582","sp_3",-0.448749,-77.954262,"Ecuador","Howard Friedman"
"occ_583","sp_3",2.333571,-76.248493,"Colombia","gustavopisso"
"occ_584","sp_3",3.601194,-75.914944,"Colombia",NA
"occ_585","sp_3",3.592222,-75.932833,"Colombia",NA
"occ_586","sp_3",3.601056,-75.912944,"Colombia",NA
"occ_587","sp_3",3.573611,-75.957389,"Colombia",NA
"occ_588","sp_3",3.581944,-75.949278,"Colombia",NA
"occ_589","sp_3",3.601056,-75.907944,"Colombia",NA
"occ_590","sp_3",3.594583,-75.942028,"Colombia",NA
"occ_591","sp_3",3.59925,-75.91275,"Colombia",NA
"occ_592","sp_3",3.602333,-75.957389,"Colombia",NA
"occ_593","sp_3",3.6035,-75.94225,"Colombia",NA
"occ_594","sp_3",3.593111,-75.942833,"Colombia",NA
"occ_595","sp_3",3.595278,-75.931306,"Colombia",NA
"occ_596","sp_3",3.80325,-75.841972,"Colombia",NA
"occ_597","sp_3",3.87931,-75.8313,"Colombia",NA
"occ_598","sp_3",3.845944,-75.85025,"Colombia",NA
"occ_599","sp_3",3.848889,-75.854833,"Colombia",NA
"occ_600","sp_3",3.88514,-75.8332,"Colombia",NA
"occ_601","sp_3",3.88542,-75.82,"Colombia",NA
"occ_602","sp_3",3.812528,-75.83125,"Colombia",NA
"occ_603","sp_3",3.890972,-75.829222,"Colombia",NA
"occ_604","sp_3",3.82275,-75.857444,"Colombia",NA
"occ_605","sp_3",3.80725,-75.838111,"Colombia",NA
"occ_606","sp_3",3.880556,-75.820361,"Colombia",NA
"occ_607","sp_3",3.829944,-75.851417,"Colombia",NA
"occ_608","sp_3",3.880417,-75.833,"Colombia",NA
"occ_609","sp_3",3.800583,-75.839111,"Colombia",NA
"occ_610","sp_3",3.812361,-75.833917,"Colombia",NA
"occ_611","sp_3",3.797917,-75.8405,"Colombia",NA
"occ_612","sp_3",3.889333,-75.833722,"Colombia",NA
"occ_613","sp_3",3.80625,-75.841306,"Colombia",NA
"occ_614","sp_3",3.885528,-75.805944,"Colombia",NA
"occ_615","sp_3",3.892139,-75.831889,"Colombia",NA
"occ_616","sp_3",3.843306,-75.851722,"Colombia",NA
"occ_617","sp_3",3.735111,-75.779611,"Colombia",NA
"occ_618","sp_3",3.638361,-75.960056,"Colombia",NA
"occ_619","sp_3",3.725972,-75.788722,"Colombia",NA
"occ_620","sp_3",3.731556,-75.779417,"Colombia",NA
"occ_621","sp_3",3.731444,-75.901306,"Colombia",NA
"occ_622","sp_3",3.638278,-76.013139,"Colombia",NA
"occ_623","sp_3",3.725694,-75.90225,"Colombia",NA
"occ_624","sp_3",3.725833,-75.785056,"Colombia",NA
"occ_625","sp_3",3.7305,-75.89375,"Colombia",NA
"occ_626","sp_3",3.717028,-75.888667,"Colombia",NA
"occ_627","sp_3",3.730111,-75.774667,"Colombia",NA
"occ_628","sp_3",3.640389,-76.017667,"Colombia",NA
"occ_629","sp_3",3.63611,-75.9561,"Colombia",NA
"occ_630","sp_3",3.627889,-76.012361,"Colombia",NA
"occ_631","sp_3",3.635583,-75.978361,"Colombia",NA
"occ_632","sp_3",3.736167,-75.779472,"Colombia",NA
"occ_633","sp_3",3.637444,-75.970778,"Colombia",NA
"occ_634","sp_3",3.634833,-75.9605,"Colombia",NA
"occ_635","sp_3",3.71825,-75.887806,"Colombia",NA
"occ_636","sp_3",3.645389,-75.944333,"Colombia",NA
"occ_637","sp_3",3.642194,-75.941944,"Colombia",NA
"occ_638","sp_3",3.63583,-75.9274,"Colombia",NA
"occ_639","sp_3",3.636833,-75.926306,"Colombia",NA
"occ_640","sp_3",3.6845,-75.8615,"Colombia",NA
"occ_641","sp_3",3.686222,-75.87225,"Colombia",NA
"occ_642","sp_3",3.691972,-75.879,"Colombia",NA
"occ_643","sp_3",3.673472,-75.86125,"Colombia",NA
"occ_644","sp_3",3.691111,-75.880139,"Colombia",NA
"occ_645","sp_3",3.680639,-75.864472,"Colombia",NA
"occ_646","sp_3",3.669833,-75.859028,"Colombia",NA
"occ_647","sp_3",3.68875,-75.858222,"Colombia",NA
"occ_648","sp_3",3.753917,-75.698222,"Colombia",NA
"occ_649","sp_3",3.706722,-75.928389,"Colombia",NA
"occ_650","sp_3",3.705944,-75.932222,"Colombia",NA
"occ_651","sp_3",3.707833,-75.9265,"Colombia",NA
"occ_652","sp_3",3.708083,-75.943083,"Colombia",NA
"occ_653","sp_3",3.705806,-75.944611,"Colombia",NA
"occ_654","sp_3",3.702833,-75.932806,"Colombia",NA
"occ_655","sp_3",3.7065,-75.939194,"Colombia",NA
"occ_656","sp_3",-0.505852,-78.071002,"Ecuador","Luis Yupa"
"occ_657","sp_3",0.211041,-78.133302,"Ecuador","Andres Laguna"
"occ_658","sp_3",4.619463,-75.572993,"Colombia","Cullen Hanks"
"occ_659","sp_3",2.221482,-76.277292,"Colombia","Jeff Harding"
"occ_660","sp_3",-1.569187,-78.251725,"Ecuador","parobbert"
"occ_661","sp_3",-0.474797,-77.975943,"Ecuador","Alvaro Jaramillo"
"occ_662","sp_3",-0.354275,-78.01363,"Ecuador","pfaucher"
"occ_663","sp_3",3.74,-75.958306,"Colombia",NA
"occ_664","sp_3",3.747694,-75.973944,"Colombia",NA
"occ_665","sp_3",3.75,-75.973583,"Colombia",NA
"occ_666","sp_3",3.735639,-75.954167,"Colombia",NA
"occ_667","sp_3",3.73475,-75.956722,"Colombia",NA
"occ_668","sp_3",3.746194,-75.979833,"Colombia",NA
"occ_669","sp_3",2.363611,-76.315833,"Colombia",NA
"occ_670","sp_3",2.377778,-76.345,"Colombia",NA
"occ_671","sp_3",2.368056,-76.310278,"Colombia",NA
"occ_672","sp_3",2.370556,-76.310556,"Colombia",NA
"occ_673","sp_3",2.364722,-76.317778,"Colombia",NA
"occ_674","sp_3",2.366389,-76.308889,"Colombia",NA
"occ_675","sp_3",2.3875,-76.310278,"Colombia",NA
"occ_676","sp_3",2.321389,-76.298611,"Colombia",NA
"occ_677","sp_3",2.319167,-76.281667,"Colombia",NA
"occ_678","sp_3",2.334167,-76.295278,"Colombia",NA
"occ_679","sp_3",2.331667,-76.358889,"Colombia",NA
"occ_680","sp_3",2.328889,-76.293333,"Colombia",NA
"occ_681","sp_3",2.331667,-76.291944,"Colombia",NA
"occ_682","sp_3",2.383056,-76.313333,"Colombia",NA
"occ_683","sp_3",2.324167,-76.288056,"Colombia",NA
"occ_684","sp_3",2.333333,-76.360833,"Colombia",NA
"occ_685","sp_3",2.324444,-76.286667,"Colombia",NA
"occ_686","sp_3",2.319444,-76.281944,"Colombia",NA
"occ_687","sp_3",2.334444,-76.358333,"Colombia",NA
"occ_688","sp_3",2.337778,-76.315833,"Colombia",NA
"occ_689","sp_3",2.339722,-76.317222,"Colombia",NA
"occ_690","sp_3",2.339444,-76.316111,"Colombia",NA
"occ_691","sp_3",2.381389,-76.320556,"Colombia",NA
"occ_692","sp_3",2.3375,-76.290278,"Colombia",NA
"occ_693","sp_3",2.331389,-76.345556,"Colombia",NA
"occ_694","sp_3",2.318611,-76.280278,"Colombia",NA
"occ_695","sp_3",2.334722,-76.294444,"Colombia",NA
"occ_696","sp_3",2.3325,-76.345556,"Colombia",NA
"occ_697","sp_3",2.339444,-76.312222,"Colombia",NA
"occ_698","sp_3",2.335833,-76.299167,"Colombia",NA
"occ_699","sp_3",2.340278,-76.313889,"Colombia",NA
"occ_700","sp_3",2.331111,-76.345,"Colombia",NA
"occ_701","sp_3",2.338333,-76.315833,"Colombia",NA
"occ_702","sp_3",1.955,-76.570556,"Colombia",NA
"occ_703","sp_3",1.9125,-76.597222,"Colombia",NA
"occ_704","sp_3",1.8725,-76.638056,"Colombia",NA
"occ_705","sp_3",1.901389,-76.604167,"Colombia",NA
"occ_706","sp_3",1.945278,-76.543056,"Colombia",NA
"occ_707","sp_3",1.943611,-76.550278,"Colombia",NA
"occ_708","sp_3",1.949722,-76.544167,"Colombia",NA
"occ_709","sp_3",1.937222,-76.590278,"Colombia",NA
"occ_710","sp_3",1.94,-76.623333,"Colombia",NA
"occ_711","sp_3",1.872222,-76.636111,"Colombia",NA
"occ_712","sp_3",1.948056,-76.544722,"Colombia",NA
"occ_713","sp_3",1.925833,-76.600278,"Colombia",NA
"occ_714","sp_3",1.941111,-76.626944,"Colombia",NA
"occ_715","sp_3",1.936111,-76.618611,"Colombia",NA
"occ_716","sp_3",1.950833,-76.541111,"Colombia",NA
"occ_717","sp_3",1.915278,-76.594722,"Colombia",NA
"occ_718","sp_3",1.901944,-76.61,"Colombia",NA
"occ_719","sp_3",1.9375,-76.595833,"Colombia",NA
"occ_720","sp_3",1.956389,-76.579167,"Colombia",NA
"occ_721","sp_3",1.906667,-76.609722,"Colombia",NA
"occ_722","sp_3",1.945278,-76.555556,"Colombia",NA
"occ_723","sp_3",1.874167,-76.635278,"Colombia",NA
"occ_724","sp_3",2.349167,-76.400278,"Colombia",NA
"occ_725","sp_3",1.946944,-76.552778,"Colombia",NA
"occ_726","sp_3",1.950556,-76.5475,"Colombia",NA
"occ_727","sp_3",1.914167,-76.595833,"Colombia",NA
"occ_728","sp_3",1.941944,-76.625556,"Colombia",NA
"occ_729","sp_3",1.939722,-76.610833,"Colombia",NA
"occ_730","sp_3",1.918333,-76.614722,"Colombia",NA
"occ_731","sp_3",1.943333,-76.554722,"Colombia",NA
"occ_732","sp_3",1.954444,-76.574722,"Colombia",NA
"occ_733","sp_3",1.936111,-76.588889,"Colombia",NA
"occ_734","sp_3",1.943611,-76.609167,"Colombia",NA
"occ_735","sp_3",2.353056,-76.391389,"Colombia",NA
"occ_736","sp_3",1.938056,-76.601111,"Colombia",NA
"occ_737","sp_3",1.946389,-76.609444,"Colombia",NA
"occ_738","sp_3",1.926667,-76.6025,"Colombia",NA
"occ_739","sp_3",1.916111,-76.611389,"Colombia",NA
"occ_740","sp_3",1.939167,-76.591667,"Colombia",NA
"occ_741","sp_3",1.936667,-76.592778,"Colombia",NA
"occ_742","sp_3",1.915,-76.621111,"Colombia",NA
"occ_743","sp_3",2.220944,-76.570778,"Colombia",NA
"occ_744","sp_3",2.13456,-76.463522,"Colombia",NA
"occ_745","sp_3",2.167453,-76.482911,"Colombia",NA
"occ_746","sp_3",2.15,-76.466667,"Colombia",NA
"occ_747","sp_3",2.166667,-76.483333,"Colombia",NA
"occ_748","sp_3",2.13698,-76.461244,"Colombia",NA
"occ_749","sp_3",2.226667,-76.429722,"Colombia",NA
"occ_750","sp_3",2.217021,-76.575205,"Colombia",NA
"occ_751","sp_3",1.879444,-76.648056,"Colombia",NA
"occ_752","sp_3",2.18359,-76.579747,"Colombia",NA
"occ_753","sp_3",2.235648,-76.392392,"Colombia",NA
"occ_754","sp_3",2.218472,-76.575528,"Colombia",NA
"occ_755","sp_3",2.183088,-76.578517,"Colombia",NA
"occ_756","sp_3",2.233333,-76.4,"Colombia",NA
"occ_757","sp_3",2.218108,-76.575968,"Colombia",NA
"occ_758","sp_3",1.876944,-76.639722,"Colombia",NA
"occ_759","sp_3",2.168496,-76.484244,"Colombia",NA
"occ_760","sp_3",1.876111,-76.645278,"Colombia",NA
"occ_761","sp_3",2.241389,-76.431389,"Colombia",NA
"occ_762","sp_3",2.235149,-76.396258,"Colombia",NA
"occ_763","sp_3",2.183687,-76.579764,"Colombia",NA
"occ_764","sp_3",2.15,-76.467233,"Colombia",NA
"occ_765","sp_3",2.218465,-76.576459,"Colombia",NA
"occ_766","sp_3",2.217083,-76.575417,"Colombia",NA
"occ_767","sp_3",2.219807,-76.575766,"Colombia",NA
"occ_768","sp_3",2.163845,-76.486744,"Colombia",NA
"occ_769","sp_3",2.228333,-76.425,"Colombia",NA
"occ_770","sp_3",2.218333,-76.575472,"Colombia",NA
"occ_771","sp_3",2.17,-76.468392,"Colombia",NA
"occ_772","sp_3",2.219066,-76.576248,"Colombia",NA
"occ_773","sp_3",2.234578,-76.400133,"Colombia",NA
"occ_774","sp_3",2.232934,-76.401244,"Colombia",NA
"occ_775","sp_3",2.166667,-76.482478,"Colombia",NA
"occ_776","sp_3",2.220306,-76.575425,"Colombia",NA
"occ_777","sp_3",2.230273,-76.561293,"Colombia",NA
"occ_778","sp_3",2.217885,-76.576222,"Colombia",NA
"occ_779","sp_3",2.215289,-76.581951,"Colombia",NA
"occ_780","sp_3",2.176638,-76.596963,"Colombia",NA
"occ_781","sp_3",2.229884,-76.563061,"Colombia",NA
"occ_782","sp_3",2.17546,-76.584711,"Colombia",NA
"occ_783","sp_3",2.216268,-76.582614,"Colombia",NA
"occ_784","sp_3",2.177968,-76.581868,"Colombia",NA
"occ_785","sp_3",2.214442,-76.580849,"Colombia",NA
"occ_786","sp_3",2.235444,-76.556939,"Colombia",NA
"occ_787","sp_3",2.221253,-76.580507,"Colombia",NA
"occ_788","sp_3",2.222214,-76.579786,"Colombia",NA
"occ_789","sp_3",2.220844,-76.581078,"Colombia",NA
"occ_790","sp_3",0.358572,-78.03447,"Ecuador","Andres Laguna"
"occ_791","sp_3",0.288503,-78.094546,"Ecuador","Andres Laguna"
"occ_792","sp_3",0.28428,-78.036051,"Ecuador","Andres Laguna"
"occ_793","sp_3",-2.126483,-78.565577,"Ecuador","jorgebrito"
"occ_794","sp_3",-2.272162,-78.440732,"Ecuador","jorgebrito"
"occ_795","sp_3",-0.597054,-77.948948,"Ecuador","Ryne Rutherford"
"occ_796","sp_3",0.996444,-77.127972,"Colombia","Lasso, Luis Gonzalo"
"occ_797","sp_3",-3.101066,-78.643011,"Ecuador","arutamecotours"
"occ_798","sp_3",-0.213266,-78.10959,"Ecuador","osoandino"
"occ_799","sp_3",-0.374536,-78.078499,"Ecuador","Robert Gowan"
"occ_800","sp_3",4.461,-75.501278,"Colombia",NA
"occ_801","sp_3",0.293161,-78.121101,"Ecuador","Andres Laguna"
"occ_802","sp_3",0.255812,-78.161628,"Ecuador","Andres Laguna"
"occ_803","sp_3",4.658389,-75.42931,"Colombia","Diego Lizcano"
"occ_804","sp_3",-0.433,-78.483,"Ecuador",NA
"occ_805","sp_3",1.87936,-76.69865,"Colombia",NA
"occ_806","sp_3",-1.21694,-78.25005,"Ecuador",NA
"occ_807","sp_3",1.833333,-76.583333,"Colombia",NA
"occ_808","sp_3",1.2,-77.116667,"Colombia","Museum of Vertebrate Zoology, University of California, Berkeley"
"occ_809","sp_3",2.25,-76.583333,"Colombia","Museum of Vertebrate Zoology, University of California, Berkeley"
"occ_810","sp_3",1.966667,-75.966667,"Colombia","Museum of Vertebrate Zoology, University of California, Berkeley"
"occ_811","sp_3",2.266667,-76.016667,"Colombia","Museum of Vertebrate Zoology, University of California, Berkeley"
"occ_812","sp_3",1.947139,-76.396675,"Colombia",NA
"occ_813","sp_3",-0.216667,-78.25,"Ecuador",NA
"occ_814","sp_3",-2.005,-78.34,"Ecuador","[no agent data]"
"occ_815","sp_3",6.92,-75.68,"Colombia",NA
"occ_816","sp_3",6.97,-75.42,"Colombia",NA
"occ_817","sp_3",7.07,-75.15,"Colombia",NA
"occ_818","sp_3",4.709719,-75.487497,"Colombia","Diego Lizcano"
"occ_819","sp_4",5.06127,102.69577,"Malaysia","infinityfaunamalaysia"
"occ_820","sp_4",4.501293,102.460545,"Malaysia","Gautam Krishnan"
"occ_821","sp_4",2.82395,101.446912,"Malaysia","Lim Teck Wyn"
"occ_822","sp_4",3.75997,101.243439,"Malaysia","onthemove8"
"occ_823","sp_4",-5.503772,104.327088,"Indonesia","Riki Prayoga"
"occ_824","sp_4",4.251129,102.581776,"Malaysia","Elliot Greiner"
"occ_825","sp_4",4.319725,102.525465,"Malaysia","Sarka Masova"
"occ_826","sp_4",4.228757,102.574659,"Malaysia","phygelius"
"occ_827","sp_4",4.278266,102.540995,"Malaysia","David Renoult"
"occ_828","sp_4",4.219642,102.306334,"Malaysia","John Clough"
"occ_829","sp_4",-1.128699,100.228318,"Indonesia","Nadège Lanau"
"occ_830","sp_4",4.208382,102.583814,"Malaysia","Erland Refling Nielsen"
"occ_831","sp_4",4.312751,102.579774,"Malaysia","Ryne Rutherford"
"occ_832","sp_4",4.216743,102.304115,"Malaysia","thadroller"
"occ_833","sp_4",4.526013,102.407387,"Malaysia","Mikael Bauer"
"occ_834","sp_4",4.674632,102.406997,"Malaysia",NA
"occ_835","sp_4",40.1667,-83.0833,"United States of America",NA
"occ_836","sp_4",37.73284,-122.50232,"United States of America","R. Bandar"
"occ_837","sp_4",6.73333,100.066673,"Thailand",NA
"occ_838","sp_4",0,102,"Indonesia","Museum of Vertebrate Zoology, University of California, Berkeley"
"occ_839","sp_4",0,102,"Indonesia",NA
"occ_840","sp_4",4.2,102,"Malaysia",NA
"occ_841","sp_4",2.1969,102.2481,"Malaysia",NA
"occ_842","sp_4",48.832,2.417,"France",NA
"occ_843","sp_4",-8.6333,116.150002,"Indonesia",NA
"occ_844","sp_4",-7.411667,111.660835,"Indonesia",NA
"occ_845","sp_4",-8.137222,111.029167,"Indonesia",NA
"occ_846","sp_4",-7.341667,111.446388,"Indonesia",NA
